Data Analysis on Children’s Health
…
Total_Diarrhea_Cases <- analysis_data %>%
  group_by(county) %>%
  select(county, Diarrhea_cases) %>%
  mutate(total_cases=sum(Diarrhea_cases)) %>%
  select(-Diarrhea_cases) %>%
  arrange(desc(total_cases)) %>%
  top_n(10) %>%
  distinct(total_cases, .keep_all = FALSE)

## Selecting by total_cases

print(Total_Diarrhea_Cases)

## # A tibble: 44 × 2
## # Groups:   county [44]
##    county          total_cases
##    <chr>                 <dbl>
##  1 Nairobi County       304178
##  2 Turkana County       220760
##  3 Kilifi County        215511
##  4 Mandera County       189032
##  5 Nakuru County        188615
##  6 Kiambu County        155463
##  7 Kajiado County       117741
##  8 Mombasa County       116595
##  9 Machakos County      101821
## 10 Kwale County          99251
## # … with 34 more rows
…
Total_Dewormed_Per_County <- analysis_data %>%
  group_by(county) %>%
  select(county, Total_Dewormed) %>%
  mutate(dewormed=sum(Total_Dewormed)) %>%
  select(-Total_Dewormed) %>%
  arrange(desc(dewormed)) %>%
  top_n(10) %>%
  distinct(dewormed, .keep_all = FALSE)

## Selecting by dewormed

print(Total_Dewormed_Per_County)

## # A tibble: 44 × 2
## # Groups:   county [44]
##    county          dewormed
##    <chr>              <dbl>
##  1 Nairobi County   2019461
##  2 Nakuru County     794575
##  3 Kilifi County     786594
##  4 Narok County      682578
##  5 Kiambu County     552724
##  6 Kwale County      544232
##  7 Turkana County    538946
##  8 Machakos County   518546
##  9 Kajiado County    509732
## 10 Meru County       488199
## # … with 34 more rows
…
